@xrdef{Introduction-title}{Introduction to ESS}
@xrdef{Introduction-snt}{Chapter@tie 1}
@xrdef{Features-title}{Why should I use ESS?}
@xrdef{Features-snt}{Section@tie 1.1}
@xrdef{Current Features-title}{Features Overview}
@xrdef{Current Features-snt}{Section@tie 1.1.1}
@xrdef{Introduction-pg}{1}
@xrdef{Features-pg}{1}
@xrdef{Current Features-pg}{2}
@xrdef{New features-title}{New features in ESS}
@xrdef{New features-snt}{Section@tie 1.2}
@xrdef{New features-pg}{3}
@xrdef{Credits-title}{Authors of and contributors to ESS}
@xrdef{Credits-snt}{Section@tie 1.3}
@xrdef{Credits-pg}{8}
@xrdef{Manual-title}{How to read this manual}
@xrdef{Manual-snt}{Section@tie 1.4}
@xrdef{Manual-pg}{9}
@xrdef{Installation-title}{Installing ESS on your system}
@xrdef{Installation-snt}{Chapter@tie 2}
@xrdef{Installing from a third-party repository-title}{Installing from a third-party repository}
@xrdef{Installing from a third-party repository-snt}{Section@tie 2.1}
@xrdef{Installing from source-title}{Installing from source}
@xrdef{Installing from source-snt}{Section@tie 2.2}
@xrdef{Installation-pg}{11}
@xrdef{Installing from a third-party repository-pg}{11}
@xrdef{Installing from source-pg}{11}
@xrdef{Activating and Loading ESS-title}{Activating and Loading ESS}
@xrdef{Activating and Loading ESS-snt}{Section@tie 2.3}
@xrdef{Check Installation-title}{Check Installation}
@xrdef{Check Installation-snt}{Section@tie 2.4}
@xrdef{Activating and Loading ESS-pg}{12}
@xrdef{Check Installation-pg}{12}
@xrdef{Interactive ESS-title}{Interacting with statistical programs}
@xrdef{Interactive ESS-snt}{Chapter@tie 3}
@xrdef{Starting up-title}{Starting an ESS process}
@xrdef{Starting up-snt}{Section@tie 3.1}
@xrdef{Multiple ESS processes-title}{Running more than one ESS process}
@xrdef{Multiple ESS processes-snt}{Section@tie 3.2}
@xrdef{ESS processes on Remote Computers-title}{ESS processes on Remote Computers}
@xrdef{ESS processes on Remote Computers-snt}{Section@tie 3.3}
@xrdef{Interactive ESS-pg}{13}
@xrdef{Starting up-pg}{13}
@xrdef{Multiple ESS processes-pg}{13}
@xrdef{ESS processes on Remote Computers-pg}{13}
@xrdef{Customizing startup-title}{Changing the startup actions}
@xrdef{Customizing startup-snt}{Section@tie 3.4}
@xrdef{Customizing startup-pg}{15}
@xrdef{Entering commands-title}{Interacting with the ESS process}
@xrdef{Entering commands-snt}{Chapter@tie 4}
@xrdef{Command-line editing-title}{Entering commands and fixing mistakes}
@xrdef{Command-line editing-snt}{Section@tie 4.1}
@xrdef{Transcript-title}{Manipulating the transcript}
@xrdef{Transcript-snt}{Section@tie 4.2}
@xrdef{Entering commands-pg}{16}
@xrdef{Command-line editing-pg}{16}
@xrdef{Transcript-pg}{16}
@xrdef{Last command-title}{Manipulating the output from the last command}
@xrdef{Last command-snt}{Section@tie 4.2.1}
@xrdef{Process buffer motion-title}{Viewing older commands}
@xrdef{Process buffer motion-snt}{Section@tie 4.2.2}
@xrdef{Transcript resubmit-title}{Re-submitting commands from the transcript}
@xrdef{Transcript resubmit-snt}{Section@tie 4.2.3}
@xrdef{Last command-pg}{17}
@xrdef{Process buffer motion-pg}{17}
@xrdef{Transcript resubmit-pg}{17}
@xrdef{Saving transcripts-title}{Keeping a record of your R session}
@xrdef{Saving transcripts-snt}{Section@tie 4.2.4}
@xrdef{Command History-title}{Command History}
@xrdef{Command History-snt}{Section@tie 4.3}
@xrdef{Saving transcripts-pg}{18}
@xrdef{Command History-pg}{19}
@xrdef{Saving History-title}{Saving the command history}
@xrdef{Saving History-snt}{Section@tie 4.3.1}
@xrdef{History expansion-title}{References to historical commands}
@xrdef{History expansion-snt}{Section@tie 4.4}
@xrdef{Saving History-pg}{20}
@xrdef{History expansion-pg}{20}
@xrdef{Hot keys-title}{Hot keys for common commands}
@xrdef{Hot keys-snt}{Section@tie 4.5}
@xrdef{Hot keys-pg}{21}
@xrdef{Statistical Process running in ESS?-title}{Is the Statistical Process running under ESS?}
@xrdef{Statistical Process running in ESS?-snt}{Section@tie 4.6}
@xrdef{Emacsclient-title}{Using emacsclient}
@xrdef{Emacsclient-snt}{Section@tie 4.7}
@xrdef{Other-title}{Other commands provided by inferior-ESS}
@xrdef{Other-snt}{Section@tie 4.8}
@xrdef{Statistical Process running in ESS?-pg}{23}
@xrdef{Emacsclient-pg}{23}
@xrdef{Other-pg}{23}
@xrdef{Evaluating code-title}{Sending code to the ESS process}
@xrdef{Evaluating code-snt}{Chapter@tie 5}
@xrdef{Evaluating code-pg}{25}
@xrdef{Transcript Mode-title}{Manipulating saved transcript files}
@xrdef{Transcript Mode-snt}{Chapter@tie 6}
@xrdef{Resubmit-title}{Resubmitting commands from the transcript file}
@xrdef{Resubmit-snt}{Section@tie 6.1}
@xrdef{Clean-title}{Cleaning transcript files}
@xrdef{Clean-snt}{Section@tie 6.2}
@xrdef{Transcript Mode-pg}{27}
@xrdef{Resubmit-pg}{27}
@xrdef{Clean-pg}{27}
@xrdef{Editing objects-title}{Editing objects and functions}
@xrdef{Editing objects-snt}{Chapter@tie 7}
@xrdef{Edit buffer-title}{Creating or modifying R objects}
@xrdef{Edit buffer-snt}{Section@tie 7.1}
@xrdef{Loading-title}{Loading source files into the ESS process}
@xrdef{Loading-snt}{Section@tie 7.2}
@xrdef{Editing objects-pg}{28}
@xrdef{Edit buffer-pg}{28}
@xrdef{Loading-pg}{28}
@xrdef{Error Checking-title}{Detecting errors in source files}
@xrdef{Error Checking-snt}{Section@tie 7.3}
@xrdef{Indenting-title}{Indenting and formatting R code}
@xrdef{Indenting-snt}{Section@tie 7.4}
@xrdef{Error Checking-pg}{29}
@xrdef{Indenting-pg}{29}
@xrdef{Styles-title}{Changing styles for code indentation and alignment}
@xrdef{Styles-snt}{Section@tie 7.4.1}
@xrdef{Styles-pg}{30}
@xrdef{Other edit buffer commands-title}{Commands for motion, completion and more}
@xrdef{Other edit buffer commands-snt}{Section@tie 7.5}
@xrdef{Source Files-title}{Maintaining R source files}
@xrdef{Source Files-snt}{Section@tie 7.6}
@xrdef{Other edit buffer commands-pg}{31}
@xrdef{Source Files-pg}{31}
@xrdef{Source Directories-title}{Names and locations of dump files}
@xrdef{Source Directories-snt}{Section@tie 7.7}
@xrdef{Source Directories-pg}{33}
@xrdef{Help-title}{Reading help files}
@xrdef{Help-snt}{Chapter@tie 8}
@xrdef{Help-pg}{35}
@xrdef{Completion-title}{Completion}
@xrdef{Completion-snt}{Chapter@tie 9}
@xrdef{Object names-title}{Completion of object names}
@xrdef{Object names-snt}{Section@tie 9.1}
@xrdef{Function arguments-title}{Completion of function arguments}
@xrdef{Function arguments-snt}{Section@tie 9.2}
@xrdef{Minibuffer completion-title}{Minibuffer completion}
@xrdef{Minibuffer completion-snt}{Section@tie 9.3}
@xrdef{Completion-pg}{37}
@xrdef{Object names-pg}{37}
@xrdef{Function arguments-pg}{37}
@xrdef{Auto-complete-title}{Integration with auto-complete package}
@xrdef{Auto-complete-snt}{Section@tie 9.4}
@xrdef{Company-title}{Company}
@xrdef{Company-snt}{Section@tie 9.5}
@xrdef{Icicles-title}{Icicles}
@xrdef{Icicles-snt}{Section@tie 9.6}
@xrdef{Minibuffer completion-pg}{38}
@xrdef{Auto-complete-pg}{38}
@xrdef{Company-pg}{38}
@xrdef{Icicles-pg}{38}
@xrdef{Developing with ESS-title}{Developing with ESS}
@xrdef{Developing with ESS-snt}{Chapter@tie 10}
@xrdef{ESS tracebug-title}{ESS tracebug}
@xrdef{ESS tracebug-snt}{Section@tie 10.1}
@xrdef{Developing with ESS-pg}{40}
@xrdef{ESS tracebug-pg}{40}
@xrdef{Getting started with tracebug-title}{Getting started with tracebug}
@xrdef{Getting started with tracebug-snt}{Section@tie 10.1.1}
@xrdef{Getting started with tracebug-pg}{41}
@xrdef{Editing documentation-title}{Editing documentation}
@xrdef{Editing documentation-snt}{Section@tie 10.2}
@xrdef{R documentation files-title}{Editing R documentation (Rd) files}
@xrdef{R documentation files-snt}{Section@tie 10.2.1}
@xrdef{Editing documentation-pg}{42}
@xrdef{R documentation files-pg}{42}
@xrdef{Roxygen-title}{Editing Roxygen documentation}
@xrdef{Roxygen-snt}{Section@tie 10.2.2}
@xrdef{Roxygen-pg}{43}
@xrdef{Namespaced Evaluation-title}{Namespaced Evaluation}
@xrdef{Namespaced Evaluation-snt}{Section@tie 10.3}
@xrdef{Namespaced Evaluation-pg}{45}
@xrdef{Extras-title}{Other ESS features and tools}
@xrdef{Extras-snt}{Chapter@tie 11}
@xrdef{ESS ElDoc-title}{ElDoc}
@xrdef{ESS ElDoc-snt}{Section@tie 11.1}
@xrdef{ESS Flymake-title}{Flymake}
@xrdef{ESS Flymake-snt}{Section@tie 11.2}
@xrdef{Handy commands-title}{Handy commands}
@xrdef{Handy commands-snt}{Section@tie 11.3}
@xrdef{Extras-pg}{46}
@xrdef{ESS ElDoc-pg}{46}
@xrdef{ESS Flymake-pg}{46}
@xrdef{Highlighting-title}{Syntactic highlighting of buffers}
@xrdef{Highlighting-snt}{Section@tie 11.4}
@xrdef{Parens-title}{Parenthesis matching}
@xrdef{Parens-snt}{Section@tie 11.5}
@xrdef{Handy commands-pg}{47}
@xrdef{Highlighting-pg}{47}
@xrdef{Graphics-title}{Using graphics with ESS}
@xrdef{Graphics-snt}{Section@tie 11.6}
@xrdef{printer-title}{Using ESS with the @code {printer()} driver}
@xrdef{printer-snt}{Section@tie 11.6.1}
@xrdef{X11-title}{Using ESS with windowing devices}
@xrdef{X11-snt}{Section@tie 11.6.2}
@xrdef{winjava-title}{Java Graphics Device}
@xrdef{winjava-snt}{Section@tie 11.6.3}
@xrdef{Imenu-title}{Imenu}
@xrdef{Imenu-snt}{Section@tie 11.7}
@xrdef{Parens-pg}{48}
@xrdef{Graphics-pg}{48}
@xrdef{printer-pg}{48}
@xrdef{X11-pg}{48}
@xrdef{winjava-pg}{48}
@xrdef{Imenu-pg}{48}
@xrdef{Toolbar-title}{Toolbar}
@xrdef{Toolbar-snt}{Section@tie 11.8}
@xrdef{Xref-title}{Xref}
@xrdef{Xref-snt}{Section@tie 11.9}
@xrdef{Rdired-title}{Rdired}
@xrdef{Rdired-snt}{Section@tie 11.10}
@xrdef{Rutils-title}{Rutils}
@xrdef{Rutils-snt}{Section@tie 11.11}
@xrdef{Toolbar-pg}{49}
@xrdef{Xref-pg}{49}
@xrdef{Rdired-pg}{49}
@xrdef{Rutils-pg}{49}
@xrdef{Org-title}{Interaction with Org mode}
@xrdef{Org-snt}{Section@tie 11.12}
@xrdef{Sweave and AUCTeX-title}{Support for Sweave in ESS and AUCTeX}
@xrdef{Sweave and AUCTeX-snt}{Section@tie 11.13}
@xrdef{Org-pg}{51}
@xrdef{Sweave and AUCTeX-pg}{51}
@xrdef{ESS for R-title}{Overview of ESS features for the S family}
@xrdef{ESS for R-snt}{Chapter@tie 12}
@xrdef{ESS(R)--Editing files-title}{ESS[R]--Editing files}
@xrdef{ESS(R)--Editing files-snt}{Section@tie 12.1}
@xrdef{iESS(R)--Inferior ESS processes-title}{iESS[R]--Inferior ESS processes}
@xrdef{iESS(R)--Inferior ESS processes-snt}{Section@tie 12.2}
@xrdef{ESS for R-pg}{52}
@xrdef{ESS(R)--Editing files-pg}{52}
@xrdef{iESS(R)--Inferior ESS processes-pg}{52}
@xrdef{Philosophies for using ESS(R)-title}{Philosophies for using ESS[R]}
@xrdef{Philosophies for using ESS(R)-snt}{Section@tie 12.3}
@xrdef{Example ESS usage-title}{Example ESS usage}
@xrdef{Example ESS usage-snt}{Section@tie 12.4}
@xrdef{Philosophies for using ESS(R)-pg}{53}
@xrdef{Example ESS usage-pg}{54}
@xrdef{ESS for SAS-title}{ESS for SAS}
@xrdef{ESS for SAS-snt}{Chapter@tie 13}
@xrdef{ESS(SAS)--Design philosophy-title}{ESS[SAS]--Design philosophy}
@xrdef{ESS(SAS)--Design philosophy-snt}{Section@tie 13.1}
@xrdef{ESS(SAS)--Editing files-title}{ESS[SAS]--Editing files}
@xrdef{ESS(SAS)--Editing files-snt}{Section@tie 13.2}
@xrdef{ESS(SAS)--TAB key-title}{ESS[SAS]--@key {TAB} key}
@xrdef{ESS(SAS)--TAB key-snt}{Section@tie 13.3}
@xrdef{ESS for SAS-pg}{56}
@xrdef{ESS(SAS)--Design philosophy-pg}{56}
@xrdef{ESS(SAS)--Editing files-pg}{56}
@xrdef{ESS(SAS)--Batch SAS processes-title}{ESS[SAS]--Batch SAS processes}
@xrdef{ESS(SAS)--Batch SAS processes-snt}{Section@tie 13.4}
@xrdef{ESS(SAS)--TAB key-pg}{57}
@xrdef{ESS(SAS)--Batch SAS processes-pg}{57}
@xrdef{ESS(SAS)--Function keys for batch processing-title}{ESS[SAS]--Function keys for batch processing}
@xrdef{ESS(SAS)--Function keys for batch processing-snt}{Section@tie 13.5}
@xrdef{ESS(SAS)--Function keys for batch processing-pg}{59}
@xrdef{iESS(SAS)--Interactive SAS processes-title}{iESS[SAS]--Interactive SAS processes}
@xrdef{iESS(SAS)--Interactive SAS processes-snt}{Section@tie 13.6}
@xrdef{iESS(SAS)--Interactive SAS processes-pg}{62}
@xrdef{iESS(SAS)--Common problems-title}{iESS[SAS]--Common problems}
@xrdef{iESS(SAS)--Common problems-snt}{Section@tie 13.7}
@xrdef{iESS(SAS)--Common problems-pg}{63}
@xrdef{ESS(SAS)--Graphics-title}{ESS[SAS]--Graphics}
@xrdef{ESS(SAS)--Graphics-snt}{Section@tie 13.8}
@xrdef{ESS(SAS)--Windows-title}{ESS[SAS]--Windows}
@xrdef{ESS(SAS)--Windows-snt}{Section@tie 13.9}
@xrdef{ESS(SAS)--Graphics-pg}{64}
@xrdef{ESS(SAS)--Windows-pg}{64}
@xrdef{ESS for BUGS-title}{ESS for BUGS}
@xrdef{ESS for BUGS-snt}{Chapter@tie 14}
@xrdef{ESS for BUGS-pg}{65}
@xrdef{ESS for JAGS-title}{ESS for JAGS}
@xrdef{ESS for JAGS-snt}{Chapter@tie 15}
@xrdef{ESS for JAGS-pg}{66}
@xrdef{Mailing lists/bug reports-title}{Bugs and Bug Reporting, Mailing Lists}
@xrdef{Mailing lists/bug reports-snt}{Chapter@tie 16}
@xrdef{Bugs-title}{Bugs}
@xrdef{Bugs-snt}{Section@tie 16.1}
@xrdef{Reporting Bugs-title}{Reporting Bugs}
@xrdef{Reporting Bugs-snt}{Section@tie 16.2}
@xrdef{Mailing Lists-title}{Mailing Lists}
@xrdef{Mailing Lists-snt}{Section@tie 16.3}
@xrdef{Mailing lists/bug reports-pg}{67}
@xrdef{Bugs-pg}{67}
@xrdef{Reporting Bugs-pg}{67}
@xrdef{Mailing Lists-pg}{67}
@xrdef{Help with Emacs-title}{Help with Emacs}
@xrdef{Help with Emacs-snt}{Section@tie 16.4}
@xrdef{Help with Emacs-pg}{68}
@xrdef{Customization-title}{Customizing ESS}
@xrdef{Customization-snt}{Appendix@tie @char65{}}
@xrdef{Customization-pg}{69}
@xrdef{Indices-title}{Indices}
@xrdef{Indices-snt}{}
@xrdef{Key index-title}{Key index}
@xrdef{Key index-snt}{}
@xrdef{Function and program index-title}{Function and program index}
@xrdef{Function and program index-snt}{}
@xrdef{Indices-pg}{70}
@xrdef{Key index-pg}{70}
@xrdef{Function and program index-pg}{70}
@xrdef{Variable index-title}{Variable index}
@xrdef{Variable index-snt}{}
@xrdef{Concept index-title}{Concept Index}
@xrdef{Concept index-snt}{}
@xrdef{Variable index-pg}{72}
@xrdef{Concept index-pg}{72}
