@xrdef{General Information-title}{General Information: README}
@xrdef{General Information-snt}{Chapter@tie 1}
@xrdef{License-title}{License}
@xrdef{License-snt}{Section@tie 1.1}
@xrdef{Installation-title}{Installation}
@xrdef{Installation-snt}{Section@tie 1.2}
@xrdef{Installing from a third-party repository-title}{Installing from a third-party repository}
@xrdef{Installing from a third-party repository-snt}{Section@tie 1.3}
@xrdef{General Information-pg}{1}
@xrdef{License-pg}{1}
@xrdef{Installation-pg}{1}
@xrdef{Installing from source-title}{Installing from source}
@xrdef{Installing from source-snt}{Section@tie 1.4}
@xrdef{Activating and Loading ESS-title}{Activating and Loading ESS}
@xrdef{Activating and Loading ESS-snt}{Section@tie 1.5}
@xrdef{Installing from a third-party repository-pg}{2}
@xrdef{Installing from source-pg}{2}
@xrdef{Activating and Loading ESS-pg}{2}
@xrdef{Check Installation-title}{Check Installation}
@xrdef{Check Installation-snt}{Section@tie 1.6}
@xrdef{Starting up-title}{Starting an ESS process}
@xrdef{Starting up-snt}{Section@tie 1.7}
@xrdef{Current Features-title}{Current Features}
@xrdef{Current Features-snt}{Section@tie 1.8}
@xrdef{Check Installation-pg}{3}
@xrdef{Starting up-pg}{3}
@xrdef{Current Features-pg}{3}
@xrdef{New Features-title}{New Features}
@xrdef{New Features-snt}{Section@tie 1.9}
@xrdef{New Features-pg}{4}
@xrdef{Reporting Bugs-title}{Reporting Bugs}
@xrdef{Reporting Bugs-snt}{Section@tie 1.10}
@xrdef{Reporting Bugs-pg}{8}
@xrdef{Mailing Lists-title}{Mailing Lists}
@xrdef{Mailing Lists-snt}{Section@tie 1.11}
@xrdef{Authors-title}{Authors}
@xrdef{Authors-snt}{Section@tie 1.12}
@xrdef{Mailing Lists-pg}{9}
@xrdef{Authors-pg}{9}
